{
  "name": "cmau/content-type",
  "title": "Content Type",
  "supports": {
    "anchor": true
  },
  "attributes": {
    "anchor": {
      "type": "string",
      "default": ""
    }
  },
  "category": "clubmenangle"
}
