{
  "name": "cmau/gallery-section",
  "title": "Gallery Section",
  "supports": {
    "anchor": true
  },
  "attributes": {
    "anchor": {
      "type": "string",
      "default": ""
    }
  },
  "category": "clubmenangle"
}
